<svg version="1.1" baseProfile="full" width="120" height="120" xmlns="http://www.w3.org/2000/svg">
<ellipse ry="50" rx="25" cy="60" cx="35" style="fill:#ffffff;stroke:#000000;stroke-width:5;"/>
<ellipse ry="50" rx="25" cy="60" cx="85" style="fill:#ffffff;stroke:#000000;stroke-width:5;"/>
<ellipse ry="10" rx="10" cy="60" cx="35" style="fill:#000000;stroke:#000000;stroke-width:5;"/>
<ellipse ry="10" rx="10" cy="60" cx="85" style="fill:#000000;stroke:#000000;stroke-width:5;"/>

</svg>
