<svg version="1.1"
     baseProfile="full"
     width="143" height="110"
     xmlns="http://www.w3.org/2000/svg">

     <path d = "M 56.2634559673 23.7365440327
     A 23 23 0 1 0 61.3717102732 48.5
     L 31.5 48.5
     L 31.5 31.5
     L 63.9135573376 31.5
     A 40 40 0 0 1 140.653021127 26.5
     L 121.62122445 26.5
     A 23 23 0 1 0 124.371710273 48.5
     L 94.5 48.5
     L 94.5 31.5
     L 142.086442662 31.5
     A 40 40 0 0 1 71.5 64.6525860712
     A 40 40 0 1 1 68.2842712475 11.7157287525
     Z" fill="black" />

     <text x="2" y="110" font-family="sans-serif" font-size="19px" fill="black">GUSTY GAMES</text>

</svg>
