<svg version="1.1" baseProfile="full" width="360" height="360" xmlns="http://www.w3.org/3000/svg">
<path d="
M 210 10
A 20 20 0 0 1 230 30
L 230 230
A 20 20 0 0 0 250 250 
L 330 250
A 20 20 0 0 1 350 270
L 350 330
A 20 20 0 0 1 330 350
L 150 350
A 20 20 0 0 1 130 330
L 130 30
A 20 20 0 0 1 150 10
Z" style="fill:#FF0000; stroke:#000000; stroke-width:10"/>
</svg>
